{
  "todo": [
    {
      "action": "Buy milk",
      "done": false,
      "prioridad": 3
    },
    {
      "action": "Buy cookies",
      "done": false,
      "prioridad": 5
    },
    {
      "action": "Call Jessica",
      "done": false,
      "prioridad": 3
    },
    {
      "action": "Call Amanda",
      "done": false,
      "prioridad": 1
    }
  ]
}
